<svg width="1078" height="1010" viewBox="0 0 1078 1010" fill="none" xmlns="http://www.w3.org/2000/svg">
<g filter="url(#filter0_d_175_16)">
<g filter="url(#filter1_f_175_16)">
<path d="M577 624C648.797 624 707 565.797 707 494C707 422.203 648.797 364 577 364C505.203 364 447 422.203 447 494C447 565.797 505.203 624 577 624Z" stroke="#C98B11" stroke-opacity="0.2" stroke-width="40"/>
</g>
<g filter="url(#filter2_f_175_16)">
<path d="M577 624C648.797 624 707 565.797 707 494C707 422.203 648.797 364 577 364C505.203 364 447 422.203 447 494C447 565.797 505.203 624 577 624Z" stroke="#C98B11" stroke-opacity="0.2" stroke-width="40"/>
</g>
<path fill-rule="evenodd" clip-rule="evenodd" d="M576.999 606.571C638.855 606.571 688.999 556.427 688.999 494.571C688.999 432.715 638.855 382.571 576.999 382.571C515.143 382.571 464.999 432.715 464.999 494.571C464.999 556.427 515.143 606.571 576.999 606.571ZM576.999 601.571C636.094 601.571 683.999 553.666 683.999 494.571C683.999 435.477 636.094 387.571 576.999 387.571C517.905 387.571 469.999 435.477 469.999 494.571C469.999 553.666 517.905 601.571 576.999 601.571Z" fill="white"/>
<circle cx="577" cy="494.571" r="107" fill="url(#paint0_radial_175_16)" fill-opacity="0.67"/>
<circle cx="576.999" cy="494.571" r="120" stroke="white" stroke-opacity="0.6" stroke-width="8" stroke-dasharray="2 2"/>
<circle cx="576.972" cy="494.573" r="125" transform="rotate(-94.75 576.972 494.573)" stroke="white" stroke-opacity="0.1" stroke-width="72" stroke-dasharray="2 10 100 50"/>
<circle cx="576.999" cy="494.571" r="140" stroke="white" stroke-opacity="0.9" stroke-width="2" stroke-dasharray="20 10 2 20 40 20"/>
<circle cx="576.999" cy="494.571" r="160" stroke="white" stroke-opacity="0.9" stroke-dasharray="40 20 10 40"/>
<circle cx="576.999" cy="494.571" r="160" stroke="white" stroke-opacity="0.05" stroke-width="16" stroke-dasharray="40 20 20 100"/>
<circle cx="576.997" cy="494.571" r="170" transform="rotate(-1 576.997 494.571)" stroke="white" stroke-opacity="0.1" stroke-width="20" stroke-dasharray="6 20 120 60"/>
<circle cx="577" cy="494.571" r="200" stroke="white" stroke-opacity="0.5" stroke-width="0.5" stroke-dasharray="360 360"/>
<circle cx="573.999" cy="484.572" r="300" transform="rotate(79 573.999 484.572)" stroke="white" stroke-opacity="0.05" stroke-width="6.5" stroke-dasharray="40 200 360 400 360 20 200 360"/>
<circle cx="577.999" cy="492.571" r="400" stroke="white" stroke-opacity="0.05" stroke-width="6.5" stroke-dasharray="40 200 360 400 360 20 200 360"/>
<circle cx="576.004" cy="494.573" r="450" transform="rotate(6 576.004 494.573)" stroke="white" stroke-opacity="0.5" stroke-width="0.5" stroke-dasharray="200 400"/>
<path d="M546.941 539.935C546.029 539.935 545.215 540.13 544.499 540.52C543.783 540.898 543.171 541.451 542.663 542.181C542.156 542.91 541.765 543.802 541.491 544.856C541.231 545.898 541.101 547.083 541.101 548.411C541.101 550.208 541.329 551.718 541.784 552.942C542.24 554.166 542.93 555.091 543.855 555.716C544.792 556.341 545.964 556.653 547.37 556.653C548.646 556.653 549.87 556.477 551.042 556.126C552.227 555.774 553.419 555.351 554.616 554.856V561.38C553.353 561.94 552.058 562.343 550.73 562.591C549.415 562.838 548.015 562.962 546.531 562.962C543.432 562.962 540.893 562.35 538.913 561.126C536.947 559.889 535.495 558.177 534.558 555.989C533.633 553.802 533.171 551.263 533.171 548.372C533.171 546.211 533.471 544.231 534.07 542.435C534.682 540.638 535.574 539.082 536.745 537.767C537.917 536.438 539.363 535.416 541.081 534.7C542.813 533.971 544.792 533.606 547.019 533.606C548.399 533.606 549.851 533.769 551.374 534.095C552.911 534.407 554.408 534.915 555.866 535.618L553.503 541.692C552.462 541.198 551.407 540.781 550.339 540.442C549.271 540.104 548.139 539.935 546.941 539.935ZM569.558 534.017C572.149 534.017 574.304 534.336 576.023 534.974C577.741 535.599 579.031 536.536 579.89 537.786C580.762 539.036 581.199 540.592 581.199 542.454C581.199 543.613 581.003 544.668 580.613 545.618C580.222 546.569 579.662 547.421 578.933 548.177C578.217 548.919 577.357 549.57 576.355 550.13L584.675 562.571H575.925L569.87 552.181H567.917V562.571H560.202V534.017H569.558ZM569.441 539.856H567.917V546.38H569.363C570.547 546.38 571.518 546.119 572.273 545.599C573.028 545.078 573.406 544.147 573.406 542.806C573.406 541.881 573.093 541.158 572.468 540.638C571.843 540.117 570.834 539.856 569.441 539.856ZM599.714 562.571L593.874 542.005H593.699C593.751 542.539 593.803 543.261 593.855 544.173C593.92 545.084 593.978 546.067 594.031 547.122C594.083 548.177 594.109 549.192 594.109 550.169V562.571H587.273V534.017H597.546L603.503 554.29H603.659L609.499 534.017H619.792V562.571H612.702V550.052C612.702 549.153 612.715 548.19 612.741 547.161C612.781 546.119 612.82 545.143 612.859 544.231C612.911 543.307 612.956 542.578 612.995 542.044H612.82L607.058 562.571H599.714Z" fill="white"/>
<g clip-path="url(#clip0_175_16)">
<path d="M547.82 456.564C542.003 456.564 537.273 451.833 537.273 446.017C537.273 440.2 542.003 435.47 547.82 435.47C553.636 435.47 558.366 440.2 558.366 446.017C558.366 451.833 553.636 456.564 547.82 456.564Z" fill="white"/>
<path d="M606.179 456.564C600.362 456.564 595.632 451.833 595.632 446.017C595.632 440.2 600.362 435.47 606.179 435.47C611.996 435.47 616.726 440.2 616.726 446.017C616.726 451.833 611.996 456.564 606.179 456.564Z" fill="white"/>
<path d="M576.999 450.939C569.73 450.939 563.816 445.024 563.816 437.755C563.816 430.486 569.73 424.571 576.999 424.571C584.268 424.571 590.183 430.486 590.183 437.755C590.183 445.024 584.268 450.939 576.999 450.939Z" fill="white"/>
<path d="M579.636 451.205V469.396C579.636 470.853 578.457 472.032 576.999 472.032C575.542 472.032 574.363 470.853 574.363 469.396V451.205C565.442 452.498 558.542 460.122 558.542 469.396V485.216C558.542 486.673 559.722 487.853 561.179 487.853H567.086L569.1 512.156C569.213 513.521 570.356 514.571 571.726 514.571H582.273C583.643 514.571 584.786 513.521 584.899 512.156L586.913 487.853H592.82C594.277 487.853 595.456 486.673 595.456 485.216V469.396C595.456 460.122 588.557 452.498 579.636 451.205Z" fill="white"/>
<path d="M553.093 485.567V469.747C553.093 465.795 554.157 462.122 555.872 458.841C553.505 457.428 550.772 456.564 547.82 456.564C539.096 456.564 531.999 463.66 531.999 472.384V485.567C531.999 487.025 533.179 488.204 534.636 488.204H537.523L539.922 512.197C540.056 513.544 541.192 514.571 542.546 514.571H553.093C554.447 514.571 555.583 513.544 555.717 512.197L557.666 492.713C554.974 491.45 553.093 488.733 553.093 485.567Z" fill="white"/>
<path d="M621.999 472.384C621.999 463.66 614.903 456.564 606.179 456.564C603.227 456.564 600.494 457.428 598.126 458.841C599.842 462.122 600.905 465.795 600.905 469.747V485.567C600.905 488.733 599.025 491.45 596.333 492.713L598.282 512.197C598.415 513.544 599.551 514.571 600.905 514.571H611.452C612.807 514.571 613.942 513.544 614.076 512.197L616.476 488.204H619.362C620.82 488.204 621.999 487.025 621.999 485.567V472.384Z" fill="white"/>
</g>
<mask id="mask0_175_16" style="mask-type:alpha" maskUnits="userSpaceOnUse" x="0" y="28" width="1078" height="1021">
<path fill-rule="evenodd" clip-rule="evenodd" d="M1078 28.5713H0V1048.57H1078V28.5713ZM576 604.571C636.751 604.571 686 555.323 686 494.571C686 433.82 636.751 384.571 576 384.571C515.249 384.571 466 433.82 466 494.571C466 555.323 515.249 604.571 576 604.571Z" fill="white"/>
</mask>
<g mask="url(#mask0_175_16)">
<line x1="576.714" y1="495.271" x2="424.714" y2="650.271" stroke="white" stroke-width="2"/>
<line x1="576.885" y1="494.106" x2="681.885" y2="694.106" stroke="white" stroke-width="2"/>
<line x1="575.904" y1="493.576" x2="834.904" y2="468.576" stroke="white" stroke-width="2"/>
<line x1="575.005" y1="494.467" x2="599.109" y2="264.478" stroke="white" stroke-width="2"/>
<line x1="575.716" y1="495.53" x2="345.716" y2="427.53" stroke="white" stroke-width="2"/>
<line x1="371.053" y1="640.892" x2="312.053" y2="466.892" stroke="white" stroke-width="2" stroke-linejoin="round" stroke-dasharray="6 6"/>
<line x1="648.808" y1="740.553" x2="438.808" y2="699.553" stroke="white" stroke-width="2" stroke-linejoin="round" stroke-dasharray="6 6"/>
<line x1="865.836" y1="515.12" x2="743.836" y2="701.12" stroke="white" stroke-width="2" stroke-linejoin="round" stroke-dasharray="6 6"/>
<line x1="642.647" y1="245.809" x2="848.647" y2="420.809" stroke="white" stroke-width="2" stroke-linejoin="round" stroke-dasharray="6 6"/>
<line x1="340.489" y1="378.712" x2="567.489" y2="243.712" stroke="white" stroke-width="2" stroke-linejoin="round" stroke-dasharray="6 6"/>
</g>
<line x1="233.146" y1="430.478" x2="197.146" y2="441.478" stroke="white"/>
<path d="M251 363.5L220.609 326.312" stroke="white"/>
<line x1="311.534" y1="354.819" x2="330.534" y2="305.819" stroke="white"/>
<line x1="573.691" y1="187.393" x2="545.691" y2="165.393" stroke="white"/>
<line x1="640.698" y1="189.602" x2="669.698" y2="167.602" stroke="white"/>
<line x1="917.544" y1="405.796" x2="934.544" y2="367.796" stroke="white"/>
<line x1="952.918" y1="452.507" x2="994.918" y2="445.507" stroke="white"/>
<line x1="935.359" y1="505.652" x2="966.375" y2="537.637" stroke="white"/>
<line x1="768.971" y1="748.501" x2="819.971" y2="745.501" stroke="white"/>
<line x1="745.376" y1="797.67" x2="774.376" y2="830.67" stroke="white"/>
<line x1="677.431" y1="802.253" x2="660.431" y2="831.253" stroke="white"/>
<line x1="405.474" y1="736.842" x2="421.474" y2="784.842" stroke="white"/>
<line x1="358.385" y1="729.319" x2="319.385" y2="776.319" stroke="white"/>
<line x1="337.991" y1="687.5" x2="283.991" y2="686.5" stroke="white"/>
<mask id="path-47-inside-1_175_16" fill="white">
<path fill-rule="evenodd" clip-rule="evenodd" d="M388.694 740.265C417.412 740.265 440.694 716.984 440.694 688.265C440.694 659.546 417.412 636.265 388.694 636.265C359.975 636.265 336.694 659.546 336.694 688.265C336.694 716.984 359.975 740.265 388.694 740.265ZM388.694 738.265C416.308 738.265 438.694 715.879 438.694 688.265C438.694 660.651 416.308 638.265 388.694 638.265C361.079 638.265 338.694 660.651 338.694 688.265C338.694 715.879 361.079 738.265 388.694 738.265Z"/>
</mask>
<path d="M439.674 688.265C439.674 716.42 416.849 739.245 388.694 739.245V741.285C417.976 741.285 441.714 717.547 441.714 688.265H439.674ZM388.694 637.285C416.849 637.285 439.674 660.109 439.674 688.265H441.714C441.714 658.983 417.976 635.245 388.694 635.245V637.285ZM337.714 688.265C337.714 660.109 360.538 637.285 388.694 637.285V635.245C359.411 635.245 335.674 658.983 335.674 688.265H337.714ZM388.694 739.245C360.538 739.245 337.714 716.42 337.714 688.265H335.674C335.674 717.547 359.411 741.285 388.694 741.285V739.245ZM437.674 688.265C437.674 715.316 415.744 737.245 388.694 737.245V739.285C416.871 739.285 439.714 716.442 439.714 688.265H437.674ZM388.694 639.285C415.744 639.285 437.674 661.214 437.674 688.265H439.714C439.714 660.087 416.871 637.245 388.694 637.245V639.285ZM339.714 688.265C339.714 661.214 361.643 639.285 388.694 639.285V637.245C360.516 637.245 337.674 660.087 337.674 688.265H339.714ZM388.694 737.245C361.643 737.245 339.714 715.316 339.714 688.265H337.674C337.674 716.442 360.516 739.285 388.694 739.285V737.245Z" fill="white" mask="url(#path-47-inside-1_175_16)"/>
<circle opacity="0.4" cx="388.694" cy="688.265" r="54" stroke="white" stroke-width="4" stroke-dasharray="2 10 60 2 10 60"/>
<circle cx="388.694" cy="688.265" r="61.75" transform="rotate(-30 388.694 688.265)" stroke="white" stroke-opacity="0.4" stroke-width="0.5" stroke-dasharray="2 10 60 2 10 60"/>
<circle cx="388.693" cy="688.265" r="56" stroke="white" stroke-opacity="0.1" stroke-width="4" stroke-dasharray="10 20 60 10"/>
<g clip-path="url(#clip1_175_16)">
<path fill-rule="evenodd" clip-rule="evenodd" d="M401.689 688C401.689 688.971 400.903 689.758 399.932 689.758H378.838C377.867 689.758 377.08 688.971 377.08 688L373.08 666.789C373.08 665.818 373.867 665.031 374.838 665.031H384.111V663.273C384.111 660.366 386.477 658 389.385 658C392.292 658 394.658 660.366 394.658 663.273V665.031H403.932C404.903 665.031 405.689 665.818 405.689 666.789L401.689 688ZM389.385 661.516C388.417 661.516 387.627 662.303 387.627 663.273V665.031H391.143V663.273C391.143 662.303 390.353 661.516 389.385 661.516ZM386.586 674.002C386.586 675.683 385.672 677.051 384.547 677.051C383.423 677.051 382.508 675.683 382.508 674.002C382.508 672.321 383.423 670.953 384.547 670.953C385.672 670.953 386.586 672.321 386.586 674.002ZM396.291 674.002C396.291 675.683 395.376 677.051 394.252 677.051C393.128 677.051 392.213 675.683 392.213 674.002C392.213 672.321 393.128 670.953 394.252 670.953C395.376 670.953 396.291 672.321 396.291 674.002ZM398.293 679.512C398.181 679.387 398.01 679.353 397.866 679.43C395.563 680.641 392.557 681.308 389.4 681.308C386.244 681.308 383.237 680.641 380.934 679.43C380.791 679.354 380.619 679.388 380.508 679.512C380.396 679.637 380.369 679.826 380.439 679.984C381.486 682.321 385.171 683.953 389.4 683.953C393.631 683.953 397.317 682.32 398.362 679.983C398.432 679.826 398.404 679.636 398.293 679.512Z" fill="white"/>
<path d="M414.994 687.09C414.679 686.565 414.105 686.242 413.491 686.242C410.393 686.242 407.552 687.961 406.114 690.704L400.722 700.995C399.806 702.739 398.017 703.82 396.05 703.82H384.112C383.141 703.82 382.355 703.034 382.355 702.062C382.355 701.091 383.141 700.305 384.112 700.305H396.049C396.705 700.305 397.303 699.944 397.609 699.362C397.913 698.781 398.833 697.025 399.623 695.516C399.872 695.041 399.855 694.47 399.577 694.011C399.299 693.553 398.801 693.273 398.265 693.273H379.993C377.644 693.273 375.44 694.188 373.778 695.848L363.383 706.244C362.696 706.931 362.696 708.043 363.383 708.73L372.172 717.485C372.515 717.828 372.965 718 373.415 718C373.864 718 374.314 717.828 374.657 717.485L381.325 710.851H396.049C400.64 710.851 404.818 708.325 406.95 704.258L415.046 688.817C415.334 688.273 415.313 687.617 414.994 687.09Z" fill="white"/>
</g>
<mask id="path-54-inside-2_175_16" fill="white">
<path fill-rule="evenodd" clip-rule="evenodd" d="M707.999 810.969C741.908 810.969 769.397 783.48 769.397 749.571C769.397 715.662 741.908 688.173 707.999 688.173C674.09 688.173 646.602 715.662 646.602 749.571C646.602 783.48 674.09 810.969 707.999 810.969ZM707.999 808.607C740.604 808.607 767.036 782.176 767.036 749.571C767.036 716.966 740.604 690.535 707.999 690.535C675.394 690.535 648.963 716.966 648.963 749.571C648.963 782.176 675.394 808.607 707.999 808.607Z"/>
</mask>
<path d="M768.377 749.571C768.377 782.917 741.345 809.949 707.999 809.949V811.989C742.472 811.989 770.417 784.043 770.417 749.571H768.377ZM707.999 689.193C741.345 689.193 768.377 716.225 768.377 749.571H770.417C770.417 715.099 742.472 687.153 707.999 687.153V689.193ZM647.622 749.571C647.622 716.225 674.654 689.193 707.999 689.193V687.153C673.527 687.153 645.582 715.099 645.582 749.571H647.622ZM707.999 809.949C674.654 809.949 647.622 782.917 647.622 749.571H645.582C645.582 784.043 673.527 811.989 707.999 811.989V809.949ZM766.016 749.571C766.016 781.612 740.041 807.587 707.999 807.587V809.627C741.167 809.627 768.056 782.739 768.056 749.571H766.016ZM707.999 691.555C740.041 691.555 766.016 717.529 766.016 749.571H768.056C768.056 716.403 741.167 689.515 707.999 689.515V691.555ZM649.983 749.571C649.983 717.529 675.958 691.555 707.999 691.555V689.515C674.831 689.515 647.943 716.403 647.943 749.571H649.983ZM707.999 807.587C675.958 807.587 649.983 781.612 649.983 749.571H647.943C647.943 782.739 674.831 809.627 707.999 809.627V807.587Z" fill="white" mask="url(#path-54-inside-2_175_16)"/>
<circle opacity="0.4" cx="707.999" cy="749.571" r="64.1207" transform="rotate(45.5 707.999 749.571)" stroke="white" stroke-width="4" stroke-dasharray="2 10 60 2 10 60"/>
<circle cx="708" cy="749.571" r="72.9551" transform="rotate(-30 708 749.571)" stroke="white" stroke-opacity="0.4" stroke-width="0.5" stroke-dasharray="2 10 60 2 10 60"/>
<circle cx="708" cy="749.571" r="66.4822" stroke="white" stroke-opacity="0.1" stroke-width="4" stroke-dasharray="10 20 60 10"/>
<g clip-path="url(#clip2_175_16)">
<mask id="mask1_175_16" style="mask-type:alpha" maskUnits="userSpaceOnUse" x="674" y="715" width="68" height="68">
<path fill-rule="evenodd" clip-rule="evenodd" d="M742 715H674V756.749C677.379 751.486 683.282 748 690 748C700.493 748 709 756.507 709 767C709 773.718 705.514 779.621 700.251 783H742V715ZM679.749 783C677.444 781.52 675.48 779.556 674 777.251V783H679.749Z" fill="#C4C4C4"/>
</mask>
<g mask="url(#mask1_175_16)">
<path d="M726.65 750.64H734.619V769.719H726.65V750.64Z" fill="white"/>
<path d="M711.561 750.64H719.529V769.719H711.561V750.64Z" fill="white"/>
<path d="M696.471 750.64H704.439V769.719H696.471V750.64Z" fill="white"/>
<path d="M681.381 750.64H689.349V769.719H681.381V750.64Z" fill="white"/>
<path d="M737.275 744.663V742.671H678.725V744.663C678.725 745.763 679.616 746.655 680.717 746.655H735.283C736.382 746.655 737.275 745.763 737.275 744.663Z" fill="white"/>
<path d="M736.007 773.703H679.994C678.894 773.703 678.002 774.595 678.002 775.695V778.008C678.002 779.108 678.894 780 679.994 780H736.007C737.107 780 737.999 779.108 737.999 778.008V775.695C737.999 774.595 737.107 773.703 736.007 773.703Z" fill="white"/>
<path fill-rule="evenodd" clip-rule="evenodd" d="M740.008 738.686H675.992C675.101 738.686 674.318 738.094 674.076 737.237C673.833 736.379 674.189 735.465 674.948 734.998L706.955 715.296C707.596 714.901 708.404 714.901 709.044 715.296L741.052 734.998C741.811 735.465 742.167 736.379 741.925 737.237C741.682 738.094 740.899 738.686 740.008 738.686ZM692.839 735.236C693.022 735.412 693.286 735.5 693.631 735.5H696.425C697.268 735.5 697.932 735.306 698.416 734.917C698.907 734.521 699.153 733.982 699.153 733.3C699.153 732.787 699.006 732.365 698.713 732.035C698.485 731.772 698.18 731.584 697.799 731.47C698.104 731.343 698.353 731.158 698.548 730.913C698.812 730.59 698.944 730.202 698.944 729.747C698.944 729.344 698.841 728.992 698.636 728.691C698.43 728.39 698.13 728.159 697.734 727.998C697.345 727.829 696.872 727.745 696.315 727.745H693.631C693.286 727.745 693.022 727.837 692.839 728.02C692.663 728.196 692.575 728.453 692.575 728.79V734.455C692.575 734.792 692.663 735.053 692.839 735.236ZM696.15 734.015H694.511V732.31H696.15C696.524 732.31 696.795 732.38 696.964 732.519C697.14 732.658 697.228 732.871 697.228 733.157C697.228 733.443 697.14 733.659 696.964 733.806C696.795 733.945 696.524 734.015 696.15 734.015ZM695.952 730.825H694.511V729.23H695.952C696.318 729.23 696.586 729.296 696.755 729.428C696.931 729.553 697.019 729.751 697.019 730.022C697.019 730.293 696.931 730.495 696.755 730.627C696.586 730.759 696.318 730.825 695.952 730.825ZM700.068 735.445C700.222 735.548 700.412 735.599 700.64 735.599C700.926 735.599 701.138 735.533 701.278 735.401C701.417 735.269 701.553 735.056 701.685 734.763L702.04 733.927H705.498L705.854 734.763C705.978 735.056 706.118 735.269 706.272 735.401C706.433 735.533 706.66 735.599 706.954 735.599C707.174 735.599 707.357 735.548 707.504 735.445C707.658 735.342 707.749 735.196 707.779 735.005C707.815 734.814 707.775 734.602 707.658 734.367L704.919 728.471C704.779 728.185 704.614 727.976 704.424 727.844C704.24 727.712 704.024 727.646 703.775 727.646C703.525 727.646 703.302 727.712 703.104 727.844C702.913 727.976 702.752 728.185 702.62 728.471L699.881 734.367C699.778 734.602 699.745 734.814 699.782 735.005C699.818 735.188 699.914 735.335 700.068 735.445ZM702.698 732.376L703.753 729.857H703.775L704.839 732.376H702.698ZM708.908 735.357C709.07 735.518 709.304 735.599 709.612 735.599C709.92 735.599 710.151 735.518 710.305 735.357C710.467 735.196 710.547 734.957 710.547 734.642V731.046L713.726 735.027C713.888 735.225 714.038 735.372 714.177 735.467C714.324 735.555 714.522 735.599 714.771 735.599C715.021 735.599 715.219 735.518 715.365 735.357C715.512 735.188 715.585 734.965 715.585 734.686V728.592C715.585 728.284 715.505 728.049 715.343 727.888C715.189 727.727 714.958 727.646 714.65 727.646C714.342 727.646 714.108 727.727 713.946 727.888C713.792 728.049 713.715 728.284 713.715 728.592V732.189L710.536 728.218C710.375 728.013 710.228 727.866 710.096 727.778C709.964 727.69 709.781 727.646 709.546 727.646C709.282 727.646 709.07 727.734 708.908 727.91C708.747 728.079 708.666 728.324 708.666 728.647V734.642C708.666 734.957 708.747 735.196 708.908 735.357ZM717.266 735.335C717.442 735.511 717.692 735.599 718.014 735.599C718.352 735.599 718.605 735.511 718.773 735.335C718.942 735.152 719.026 734.899 719.026 734.576V732.002H719.048L721.732 735.005C721.908 735.203 722.07 735.353 722.216 735.456C722.37 735.551 722.572 735.599 722.821 735.599C723.115 735.599 723.335 735.526 723.481 735.379C723.635 735.232 723.712 735.049 723.712 734.829C723.712 734.602 723.617 734.382 723.426 734.169L721.009 731.437L723.294 729.01C723.456 728.834 723.54 728.643 723.547 728.438C723.562 728.225 723.5 728.042 723.36 727.888C723.228 727.727 723.008 727.646 722.7 727.646C722.502 727.646 722.323 727.69 722.161 727.778C722.007 727.859 721.861 727.972 721.721 728.119L719.048 731.067H719.026V728.669C719.026 728.332 718.938 728.079 718.762 727.91C718.594 727.734 718.344 727.646 718.014 727.646C717.692 727.646 717.442 727.734 717.266 727.91C717.09 728.079 717.002 728.332 717.002 728.669V734.576C717.002 734.899 717.09 735.152 717.266 735.335Z" fill="white"/>
</g>
<path fill-rule="evenodd" clip-rule="evenodd" d="M690 783C698.837 783 706 775.837 706 767C706 758.163 698.837 751 690 751C681.163 751 674 758.163 674 767C674 775.837 681.163 783 690 783ZM684.536 771.423C684.379 771.942 684.234 772.449 684.089 772.969C683.905 773.657 683.971 773.826 684.615 774.125C685.47 774.541 686.377 774.749 687.31 774.892C688.046 775.009 688.059 775.048 688.072 775.788C688.086 776.126 688.086 776.464 688.086 776.802V776.802C688.086 777.23 688.296 777.477 688.743 777.49C689.242 777.503 689.755 777.503 690.254 777.49C690.675 777.477 690.885 777.256 690.885 776.841C690.885 776.684 690.888 776.529 690.891 776.375C690.897 776.067 690.903 775.762 690.885 775.45C690.859 774.983 691.069 774.749 691.53 774.619C692.594 774.333 693.488 773.774 694.185 772.943C696.104 770.643 695.368 767.265 692.647 765.771C691.816 765.323 690.95 764.97 690.093 764.622C690.055 764.606 690.017 764.591 689.978 764.575C689.453 764.367 688.953 764.121 688.519 763.77C687.652 763.081 687.823 761.977 688.835 761.535C689.124 761.405 689.413 761.366 689.729 761.353C690.912 761.288 692.029 761.509 693.094 762.016C693.62 762.263 693.791 762.185 693.975 761.639C694.126 761.201 694.254 760.755 694.382 760.307C694.421 760.171 694.46 760.034 694.5 759.898C694.606 759.508 694.474 759.248 694.093 759.079C693.409 758.78 692.713 758.573 691.977 758.456C691.017 758.313 691.017 758.3 691.017 757.351C691.017 756.678 691.017 756.34 690.848 756.171C690.678 756 690.336 756 689.65 756H689.058C688.427 756.026 688.309 756.13 688.296 756.767V757.624C688.283 758.456 688.283 758.456 687.504 758.741C687.492 758.745 687.48 758.75 687.468 758.754C685.496 759.456 684.273 760.794 684.142 762.925C684.024 764.809 685.023 766.095 686.587 767.018C687.261 767.414 687.98 767.698 688.699 767.982C689.017 768.108 689.335 768.234 689.65 768.369C690.044 768.538 690.425 768.746 690.767 769.019C691.753 769.824 691.569 771.163 690.399 771.669C689.781 771.942 689.111 772.007 688.44 771.929C687.389 771.799 686.39 771.527 685.443 771.046C684.891 770.76 684.72 770.825 684.536 771.423Z" fill="white"/>
</g>
<mask id="path-68-inside-3_175_16" fill="white">
<path fill-rule="evenodd" clip-rule="evenodd" d="M893.999 522.969C927.908 522.969 955.397 495.48 955.397 461.571C955.397 427.662 927.908 400.173 893.999 400.173C860.09 400.173 832.602 427.662 832.602 461.571C832.602 495.48 860.09 522.969 893.999 522.969ZM893.999 520.607C926.604 520.607 953.036 494.176 953.036 461.571C953.036 428.966 926.604 402.535 893.999 402.535C861.394 402.535 834.963 428.966 834.963 461.571C834.963 494.176 861.394 520.607 893.999 520.607Z"/>
</mask>
<path d="M954.377 461.571C954.377 494.917 927.345 521.949 893.999 521.949V523.989C928.472 523.989 956.417 496.043 956.417 461.571H954.377ZM893.999 401.193C927.345 401.193 954.377 428.225 954.377 461.571H956.417C956.417 427.099 928.472 399.153 893.999 399.153V401.193ZM833.622 461.571C833.622 428.225 860.654 401.193 893.999 401.193V399.153C859.527 399.153 831.582 427.099 831.582 461.571H833.622ZM893.999 521.949C860.654 521.949 833.622 494.917 833.622 461.571H831.582C831.582 496.043 859.527 523.989 893.999 523.989V521.949ZM952.016 461.571C952.016 493.612 926.041 519.587 893.999 519.587V521.627C927.167 521.627 954.056 494.739 954.056 461.571H952.016ZM893.999 403.555C926.041 403.555 952.016 429.529 952.016 461.571H954.056C954.056 428.403 927.167 401.515 893.999 401.515V403.555ZM835.983 461.571C835.983 429.529 861.958 403.555 893.999 403.555V401.515C860.831 401.515 833.943 428.403 833.943 461.571H835.983ZM893.999 519.587C861.958 519.587 835.983 493.612 835.983 461.571H833.943C833.943 494.739 860.831 521.627 893.999 521.627V519.587Z" fill="white" mask="url(#path-68-inside-3_175_16)"/>
<circle opacity="0.4" cx="894" cy="461.573" r="64.1207" transform="rotate(-65 894 461.573)" stroke="white" stroke-width="4" stroke-dasharray="2 10 60 2 10 60"/>
<circle cx="894" cy="461.571" r="72.9551" transform="rotate(-30 894 461.571)" stroke="white" stroke-opacity="0.4" stroke-width="0.5" stroke-dasharray="2 10 60 2 10 60"/>
<circle cx="894" cy="461.571" r="66.4822" stroke="white" stroke-opacity="0.1" stroke-width="4" stroke-dasharray="10 20 60 10"/>
<path d="M894 458.688C890.836 458.688 888.067 458.028 885.431 456.446C882.794 454.996 880.816 453.019 879.366 450.382C877.784 447.745 877.125 444.977 877.125 441.812C877.125 438.78 877.784 436.012 879.366 433.375C880.816 430.738 882.794 428.761 885.431 427.179C888.067 425.729 890.836 424.938 894 424.938C897.032 424.938 899.801 425.729 902.438 427.179C905.074 428.761 907.052 430.738 908.634 433.375C910.084 436.012 910.875 438.78 910.875 441.812C910.875 444.977 910.084 447.745 908.634 450.382C907.052 453.019 905.074 454.996 902.438 456.446C899.801 458.028 897.032 458.688 894 458.688ZM906.656 463.038C909.688 463.17 912.457 464.093 915.094 465.675C917.73 467.257 919.708 469.366 921.29 472.003C922.74 474.64 923.531 477.54 923.531 480.572V486.109C923.531 487.955 922.872 489.405 921.686 490.592C920.367 491.91 910.875 498.438 894 498.438C877.125 498.438 867.501 491.91 866.314 490.592C864.996 489.405 864.469 487.955 864.469 486.109V480.572C864.469 477.54 865.128 474.64 866.71 472.003C868.16 469.366 870.138 467.257 872.774 465.675C875.411 464.093 878.18 463.17 881.344 463.038L887.672 488.219L891.891 470.289L887.672 462.906H900.328L896.109 470.289L900.328 488.219L906.656 463.038Z" fill="white"/>
<mask id="path-74-inside-4_175_16" fill="white">
<path fill-rule="evenodd" clip-rule="evenodd" d="M606 265.62C631.432 265.62 652.048 245.003 652.048 219.571C652.048 194.139 631.432 173.523 606 173.523C580.568 173.523 559.952 194.139 559.952 219.571C559.952 245.003 580.568 265.62 606 265.62ZM606 263.848C630.453 263.848 650.277 244.025 650.277 219.571C650.277 195.117 630.453 175.294 606 175.294C581.546 175.294 561.722 195.117 561.722 219.571C561.722 244.025 581.546 263.848 606 263.848Z"/>
</mask>
<path d="M651.028 219.571C651.028 244.44 630.868 264.6 606 264.6V266.64C631.995 266.64 653.068 245.566 653.068 219.571H651.028ZM606 174.543C630.868 174.543 651.028 194.703 651.028 219.571H653.068C653.068 193.576 631.995 172.503 606 172.503V174.543ZM560.972 219.571C560.972 194.703 581.131 174.543 606 174.543V172.503C580.005 172.503 558.932 193.576 558.932 219.571H560.972ZM606 264.6C581.131 264.6 560.972 244.44 560.972 219.571H558.932C558.932 245.566 580.005 266.64 606 266.64V264.6ZM649.257 219.571C649.257 243.461 629.89 262.828 606 262.828V264.868C631.017 264.868 651.297 244.588 651.297 219.571H649.257ZM606 176.314C629.89 176.314 649.257 195.681 649.257 219.571H651.297C651.297 194.554 631.017 174.274 606 174.274V176.314ZM562.742 219.571C562.742 195.681 582.109 176.314 606 176.314V174.274C580.983 174.274 560.702 194.554 560.702 219.571H562.742ZM606 262.828C582.109 262.828 562.742 243.461 562.742 219.571H560.702C560.702 244.588 580.983 264.868 606 264.868V262.828Z" fill="white" mask="url(#path-74-inside-4_175_16)"/>
<circle opacity="0.4" cx="605.999" cy="219.572" r="47.5905" transform="rotate(5.5 605.999 219.572)" stroke="white" stroke-width="4" stroke-dasharray="2 10 60 2 10 60"/>
<circle cx="606" cy="219.571" r="54.6538" transform="rotate(-30 606 219.571)" stroke="white" stroke-opacity="0.4" stroke-width="0.5" stroke-dasharray="2 10 60 2 10 60"/>
<circle cx="606" cy="219.571" r="49.3616" stroke="white" stroke-opacity="0.1" stroke-width="4" stroke-dasharray="10 20 60 10"/>
<g clip-path="url(#clip3_175_16)">
<path d="M590.142 212.056C593.507 212.056 596.235 209.327 596.235 205.962C596.235 202.596 593.507 199.868 590.142 199.868C586.776 199.868 584.048 202.596 584.048 205.962C584.048 209.327 586.776 212.056 590.142 212.056Z" fill="white"/>
<path d="M590.141 212.056C585.1 212.056 581 216.156 581 221.196V228.813C581 229.656 581.681 230.337 582.523 230.337H584.191L585.578 244.2C585.655 244.978 586.311 245.571 587.094 245.571H593.187C593.97 245.571 594.626 244.978 594.704 244.2L596.09 230.337H597.758C598.6 230.337 599.281 229.656 599.281 228.813V221.196C599.281 216.156 595.181 212.056 590.141 212.056Z" fill="white"/>
<path d="M631.476 224.142H629.851V196.618H631.476C632.318 196.618 632.999 195.937 632.999 195.095C632.999 194.253 632.318 193.571 631.476 193.571C610.054 193.571 600.42 193.571 588.718 193.571C587.876 193.571 587.195 194.253 587.195 195.095C587.195 195.937 587.876 196.618 588.718 196.618H590.242C595.282 196.618 599.382 200.82 599.382 205.86C599.382 207.933 598.663 209.824 597.496 211.359C600.472 213.583 602.429 217.102 602.429 221.095V227.188C603.094 227.188 631.924 227.188 631.476 227.188C632.318 227.188 632.999 226.507 632.999 225.665C632.999 224.823 632.318 224.142 631.476 224.142ZM625.281 221.095C624.625 221.095 606.686 221.095 606.999 221.095C606.157 221.095 605.476 220.413 605.476 219.571V213.478C605.476 212.635 606.157 211.954 606.999 211.954H611.57V207.384C611.57 206.542 612.251 205.86 613.093 205.86H617.663V201.29C617.663 200.448 618.345 199.767 619.187 199.767H625.281C626.123 199.767 626.804 200.448 626.804 201.29V219.571C626.804 220.413 626.123 221.095 625.281 221.095Z" fill="white"/>
<path d="M602.908 237.806H603.48C603.958 237.806 604.303 237.657 604.517 237.36L608.074 232.601C608.242 232.375 608.426 232.22 608.626 232.136C608.826 232.045 609.072 232 609.363 232H611.883L607.405 237.767C607.114 238.142 606.814 238.41 606.504 238.571C606.73 238.662 606.933 238.781 607.114 238.93C607.295 239.072 607.47 239.263 607.638 239.502L612.232 246.064H609.644C609.476 246.064 609.33 246.051 609.208 246.025C609.091 245.999 608.988 245.963 608.898 245.918C608.807 245.873 608.73 245.818 608.665 245.753C608.6 245.682 608.539 245.602 608.481 245.511L604.866 240.452C604.743 240.277 604.597 240.154 604.429 240.083C604.261 240.006 604.026 239.967 603.722 239.967H602.908V246.064H600V232H602.908V237.806Z" fill="white"/>
<path d="M618.228 238.998C619.139 238.998 619.804 238.778 620.224 238.339C620.651 237.899 620.864 237.298 620.864 236.536C620.864 236.187 620.809 235.87 620.699 235.586C620.596 235.295 620.434 235.05 620.215 234.85C620.001 234.643 619.73 234.484 619.4 234.375C619.071 234.265 618.68 234.21 618.228 234.21H616.386V238.998H618.228ZM618.228 232C619.19 232 620.021 232.113 620.719 232.339C621.423 232.565 622.001 232.882 622.453 233.289C622.906 233.69 623.239 234.168 623.452 234.724C623.671 235.279 623.781 235.883 623.781 236.536C623.781 237.227 623.668 237.861 623.442 238.436C623.216 239.011 622.873 239.505 622.415 239.919C621.956 240.332 621.378 240.655 620.68 240.888C619.982 241.114 619.165 241.227 618.228 241.227H616.386V246.064H613.478V232H618.228Z" fill="white"/>
<path d="M628.559 246.064H625.632V232H628.559V246.064Z" fill="white"/>
<path d="M614.618 208.907H617.665V218.048H614.618V208.907Z" fill="white"/>
<path d="M620.711 202.814H623.758V218.048H620.711V202.814Z" fill="white"/>
<path d="M608.523 215.001H611.57V218.048H608.523V215.001Z" fill="white"/>
</g>
<mask id="path-86-inside-5_175_16" fill="white">
<path fill-rule="evenodd" clip-rule="evenodd" d="M288.999 471.969C322.908 471.969 350.397 444.48 350.397 410.571C350.397 376.662 322.908 349.173 288.999 349.173C255.09 349.173 227.602 376.662 227.602 410.571C227.602 444.48 255.09 471.969 288.999 471.969ZM288.999 469.607C321.604 469.607 348.036 443.176 348.036 410.571C348.036 377.966 321.604 351.535 288.999 351.535C256.394 351.535 229.963 377.966 229.963 410.571C229.963 443.176 256.394 469.607 288.999 469.607Z"/>
</mask>
<path d="M349.377 410.571C349.377 443.917 322.345 470.949 288.999 470.949V472.989C323.472 472.989 351.417 445.043 351.417 410.571H349.377ZM288.999 350.193C322.345 350.193 349.377 377.225 349.377 410.571H351.417C351.417 376.099 323.472 348.153 288.999 348.153V350.193ZM228.622 410.571C228.622 377.225 255.654 350.193 288.999 350.193V348.153C254.527 348.153 226.582 376.099 226.582 410.571H228.622ZM288.999 470.949C255.654 470.949 228.622 443.917 228.622 410.571H226.582C226.582 445.043 254.527 472.989 288.999 472.989V470.949ZM347.016 410.571C347.016 442.612 321.041 468.587 288.999 468.587V470.627C322.167 470.627 349.056 443.739 349.056 410.571H347.016ZM288.999 352.555C321.041 352.555 347.016 378.529 347.016 410.571H349.056C349.056 377.403 322.167 350.515 288.999 350.515V352.555ZM230.983 410.571C230.983 378.529 256.958 352.555 288.999 352.555V350.515C255.831 350.515 228.943 377.403 228.943 410.571H230.983ZM288.999 468.587C256.958 468.587 230.983 442.612 230.983 410.571H228.943C228.943 443.739 255.831 470.627 288.999 470.627V468.587Z" fill="white" mask="url(#path-86-inside-5_175_16)"/>
<circle opacity="0.4" cx="289" cy="410.572" r="64.1207" transform="rotate(46.5 289 410.572)" stroke="white" stroke-width="4" stroke-dasharray="2 10 60 2 10 60"/>
<circle cx="289" cy="410.571" r="72.9551" transform="rotate(-30 289 410.571)" stroke="white" stroke-opacity="0.4" stroke-width="0.5" stroke-dasharray="2 10 60 2 10 60"/>
<circle cx="289" cy="410.571" r="66.4822" stroke="white" stroke-opacity="0.1" stroke-width="4" stroke-dasharray="10 20 60 10"/>
<mask id="mask2_175_16" style="mask-type:alpha" maskUnits="userSpaceOnUse" x="253" y="372" width="72" height="72">
<path d="M253 372H325V444H253V372Z" fill="#C4C4C4"/>
</mask>
<g mask="url(#mask2_175_16)">
<mask id="mask3_175_16" style="mask-type:alpha" maskUnits="userSpaceOnUse" x="275" y="376" width="47" height="70">
<path fill-rule="evenodd" clip-rule="evenodd" d="M321.604 376.867H275.704V389.53C276.487 390.071 277 390.976 277 392V437C277 438.024 276.487 438.929 275.704 439.47V445.617H321.604V376.867Z" fill="#C4C4C4"/>
</mask>
<g mask="url(#mask3_175_16)">
<path d="M316 436.644V404C315.799 404.017 315.597 404.028 315.395 404.028H267.605C267.404 404.028 267.196 404.017 267 404V436.644C267 438.495 268.507 440 270.361 440H312.64C314.494 440 316 438.501 316 436.644ZM302.725 413.09C302.725 414.019 301.975 414.769 301.045 414.769H283.975C283.045 414.769 282.294 414.019 282.294 413.09V411.607C282.294 410.678 283.045 409.929 283.975 409.929H301.039C301.969 409.929 302.72 410.678 302.72 411.607V413.09H302.725Z" fill="white"/>
<path d="M277.239 399H308L300 392H303L314 402H277.239V399Z" fill="white"/>
<path d="M288.84 386.581C289.217 386.249 289.783 386.249 290.161 386.581L301.006 396.125C301.352 396.429 301.136 397 300.675 397H278.325C277.864 397 277.649 396.429 277.995 396.125L288.84 386.581Z" fill="white"/>
</g>
<path fill-rule="evenodd" clip-rule="evenodd" d="M272.22 377.969C272.615 378.368 272.834 378.909 272.827 379.471L272.812 387.594L262.889 387.613L262.905 379.494C262.907 378.365 263.896 377.408 265.064 377.405L270.821 377.395C271.346 377.391 271.85 377.598 272.22 377.969ZM272.804 389.046L262.882 389.065L262.787 434.425L272.709 434.407L272.804 389.046ZM263.239 435.876L266.787 442.902C267.155 443.63 268.191 443.636 268.567 442.913L272.238 435.859L263.239 435.876Z" fill="white"/>
</g>
<mask id="path-97-inside-6_175_16" fill="white">
<path d="M285 685C285 703.778 269.778 719 251 719C232.222 719 217 703.778 217 685C217 666.222 232.222 651 251 651C269.778 651 285 666.222 285 685Z"/>
</mask>
<path d="M283 685C283 702.673 268.673 717 251 717V721C270.882 721 287 704.882 287 685H283ZM251 717C233.327 717 219 702.673 219 685H215C215 704.882 231.118 721 251 721V717ZM219 685C219 667.327 233.327 653 251 653V649C231.118 649 215 665.118 215 685H219ZM251 653C268.673 653 283 667.327 283 685H287C287 665.118 270.882 649 251 649V653Z" fill="white" mask="url(#path-97-inside-6_175_16)"/>
<g clip-path="url(#clip4_175_16)">
<path d="M261.349 674.449L263.609 672.189C264.021 671.778 264.021 671.11 263.609 670.698C263.197 670.286 262.529 670.286 262.117 670.698L259.858 672.957C259.446 673.369 259.446 674.037 259.858 674.449C260.27 674.861 260.937 674.861 261.349 674.449Z" fill="white"/>
<path d="M266.251 679.426H263.992C263.409 679.426 262.937 679.899 262.937 680.481C262.937 681.064 263.409 681.536 263.992 681.536H266.251C266.834 681.536 267.306 681.064 267.306 680.481C267.306 679.899 266.834 679.426 266.251 679.426Z" fill="white"/>
<path d="M253.824 671.369C254.406 671.369 254.878 670.897 254.878 670.314V668.055C254.878 667.472 254.406 667 253.824 667C253.241 667 252.769 667.472 252.769 668.055V670.314C252.769 670.897 253.241 671.369 253.824 671.369Z" fill="white"/>
<path d="M235.004 693.292C234.593 693.703 234.592 694.372 235.004 694.783L239.523 699.302C239.935 699.714 240.603 699.714 241.015 699.302L242.782 697.535L236.772 691.525L235.004 693.292Z" fill="white"/>
<path d="M253.263 694.143L245.858 697.628L250.92 702.691C251.332 703.103 252 703.103 252.412 702.691L256.366 698.737C256.778 698.325 256.778 697.658 256.366 697.246L253.263 694.143Z" fill="white"/>
<path d="M248.923 670.698C248.68 670.455 248.334 670.346 247.996 670.405C247.658 670.464 247.369 670.684 247.223 670.995L238.264 690.033L244.274 696.043L263.312 687.084C263.623 686.938 263.843 686.649 263.902 686.311C263.961 685.973 263.852 685.627 263.609 685.384L248.923 670.698Z" fill="white"/>
</g>
<mask id="path-105-inside-7_175_16" fill="white">
<path d="M333 802C333 820.778 317.778 836 299 836C280.222 836 265 820.778 265 802C265 783.222 280.222 768 299 768C317.778 768 333 783.222 333 802Z"/>
</mask>
<path d="M331 802C331 819.673 316.673 834 299 834V838C318.882 838 335 821.882 335 802H331ZM299 834C281.327 834 267 819.673 267 802H263C263 821.882 279.118 838 299 838V834ZM267 802C267 784.327 281.327 770 299 770V766C279.118 766 263 782.118 263 802H267ZM299 770C316.673 770 331 784.327 331 802H335C335 782.118 318.882 766 299 766V770Z" fill="white" mask="url(#path-105-inside-7_175_16)"/>
<path fill-rule="evenodd" clip-rule="evenodd" d="M285.208 789H312.182C312.723 789 313.156 789.108 313.588 789.325L298.695 801.405L283.802 789.325C284.235 789.108 284.703 789 285.208 789ZM298.696 805.083C299.057 805.083 299.418 804.975 299.706 804.722L315.429 791.993V792.209V811.79C315.429 813.557 313.986 815 312.219 815H285.209C283.442 815 282 813.557 282 811.79V792.209V791.993L297.687 804.722C297.975 804.975 298.336 805.083 298.696 805.083Z" fill="white"/>
<mask id="path-108-inside-8_175_16" fill="white">
<path d="M465 816C465 834.778 449.778 850 431 850C412.222 850 397 834.778 397 816C397 797.222 412.222 782 431 782C449.778 782 465 797.222 465 816Z"/>
</mask>
<path d="M463 816C463 833.673 448.673 848 431 848V852C450.882 852 467 835.882 467 816H463ZM431 848C413.327 848 399 833.673 399 816H395C395 835.882 411.118 852 431 852V848ZM399 816C399 798.327 413.327 784 431 784V780C411.118 780 395 796.118 395 816H399ZM431 784C448.673 784 463 798.327 463 816H467C467 796.118 450.882 780 431 780V784Z" fill="white" mask="url(#path-108-inside-8_175_16)"/>
<g clip-path="url(#clip5_175_16)">
<path d="M441.547 800.18H433.109C429.039 800.18 425.727 803.492 425.727 807.562C425.727 811.276 428.482 814.357 432.055 814.87V818.109C432.055 818.536 432.311 818.921 432.706 819.084C433.095 819.246 433.551 819.159 433.855 818.855L437.765 814.945H441.547C445.617 814.945 449 811.633 449 807.562C449 803.492 445.617 800.18 441.547 800.18ZM433.109 808.617C432.527 808.617 432.055 808.145 432.055 807.562C432.055 806.98 432.527 806.508 433.109 806.508C433.692 806.508 434.164 806.98 434.164 807.562C434.164 808.145 433.692 808.617 433.109 808.617ZM437.328 808.617C436.746 808.617 436.273 808.145 436.273 807.562C436.273 806.98 436.746 806.508 437.328 806.508C437.911 806.508 438.383 806.98 438.383 807.562C438.383 808.145 437.911 808.617 437.328 808.617ZM441.547 808.617C440.964 808.617 440.492 808.145 440.492 807.562C440.492 806.98 440.964 806.508 441.547 806.508C442.129 806.508 442.602 806.98 442.602 807.562C442.602 808.145 442.129 808.617 441.547 808.617Z" fill="white"/>
<path d="M436.695 831.82C438.44 831.82 439.859 830.401 439.859 828.656V824.438C439.859 823.983 439.569 823.581 439.138 823.437L432.825 821.328C432.516 821.224 432.178 821.271 431.906 821.451L429.222 823.24C426.38 821.884 423.006 818.511 421.651 815.668L423.44 812.984C423.62 812.713 423.666 812.374 423.563 812.065L421.453 805.752C421.31 805.322 420.907 805.031 420.453 805.031H416.164C414.419 805.031 413 806.436 413 808.18C413 820.332 424.544 831.82 436.695 831.82Z" fill="white"/>
</g>
<mask id="path-112-inside-9_175_16" fill="white">
<path d="M725 143C725 161.778 709.778 177 691 177C672.222 177 657 161.778 657 143C657 124.222 672.222 109 691 109C709.778 109 725 124.222 725 143Z"/>
</mask>
<path d="M723.5 143C723.5 160.949 708.949 175.5 691 175.5V178.5C710.606 178.5 726.5 162.606 726.5 143H723.5ZM691 175.5C673.051 175.5 658.5 160.949 658.5 143H655.5C655.5 162.606 671.394 178.5 691 178.5V175.5ZM658.5 143C658.5 125.051 673.051 110.5 691 110.5V107.5C671.394 107.5 655.5 123.394 655.5 143H658.5ZM691 110.5C708.949 110.5 723.5 125.051 723.5 143H726.5C726.5 123.394 710.606 107.5 691 107.5V110.5Z" fill="white" mask="url(#path-112-inside-9_175_16)"/>
<g clip-path="url(#clip6_175_16)">
<path d="M703.656 126C701.912 126 700.492 127.419 700.492 129.164C700.492 129.872 700.734 130.519 701.128 131.047L695.968 136.646C695.726 136.587 695.478 136.547 695.219 136.547C694.571 136.547 693.969 136.744 693.467 137.079L689.787 134.32C689.881 134.022 689.945 133.711 689.945 133.383C689.945 131.638 688.526 130.219 686.781 130.219C685.037 130.219 683.617 131.638 683.617 133.383C683.617 133.711 683.682 134.022 683.775 134.32L680.095 137.079C679.593 136.744 678.991 136.547 678.344 136.547C676.599 136.547 675.18 137.966 675.18 139.711C675.18 141.456 676.599 142.875 678.344 142.875C680.088 142.875 681.508 141.456 681.508 139.711C681.508 139.383 681.443 139.072 681.35 138.774L685.03 136.015C685.532 136.35 686.134 136.547 686.781 136.547C687.429 136.547 688.031 136.35 688.533 136.015L692.213 138.774C692.119 139.072 692.055 139.383 692.055 139.711C692.055 141.456 693.474 142.875 695.219 142.875C696.963 142.875 698.383 141.456 698.383 139.711C698.383 139.003 698.141 138.356 697.747 137.828L702.907 132.229C703.149 132.288 703.397 132.328 703.656 132.328C705.401 132.328 706.82 130.909 706.82 129.164C706.82 127.419 705.401 126 703.656 126Z" fill="white"/>
<path d="M688.891 142.875H684.672C684.089 142.875 683.617 143.347 683.617 143.93V157.781H689.945V143.93C689.945 143.347 689.474 142.875 688.891 142.875Z" fill="white"/>
<path d="M697.328 147.094H693.109C692.526 147.094 692.055 147.565 692.055 148.148V157.781H698.383V148.148C698.383 147.565 697.911 147.094 697.328 147.094Z" fill="white"/>
<path d="M705.766 138.656H701.547C700.964 138.656 700.492 139.128 700.492 139.711V157.781H706.82V139.711C706.82 139.128 706.349 138.656 705.766 138.656Z" fill="white"/>
<path d="M680.453 149.203H676.234C675.651 149.203 675.18 149.675 675.18 150.258V157.781H681.508V150.258C681.508 149.675 681.036 149.203 680.453 149.203Z" fill="white"/>
<path d="M707.945 159.891C703.235 159.891 701.074 159.891 700.22 159.891C699.83 159.891 699.69 159.891 699.691 159.891C698.137 159.891 692.353 159.891 674.055 159.891C673.472 159.891 673 160.362 673 160.945C673 161.528 673.472 162 674.055 162C686.818 162 696.022 162 707.945 162C708.528 162 709 161.528 709 160.945C709 160.362 708.528 159.891 707.945 159.891Z" fill="white"/>
</g>
<mask id="path-120-inside-10_175_16" fill="white">
<path d="M982 338C982 356.778 966.778 372 948 372C929.222 372 914 356.778 914 338C914 319.222 929.222 304 948 304C966.778 304 982 319.222 982 338Z"/>
</mask>
<path d="M980.5 338C980.5 355.949 965.949 370.5 948 370.5V373.5C967.606 373.5 983.5 357.606 983.5 338H980.5ZM948 370.5C930.051 370.5 915.5 355.949 915.5 338H912.5C912.5 357.606 928.394 373.5 948 373.5V370.5ZM915.5 338C915.5 320.051 930.051 305.5 948 305.5V302.5C928.394 302.5 912.5 318.394 912.5 338H915.5ZM948 305.5C965.949 305.5 980.5 320.051 980.5 338H983.5C983.5 318.394 967.606 302.5 948 302.5V305.5Z" fill="white" mask="url(#path-120-inside-10_175_16)"/>
<mask id="mask4_175_16" style="mask-type:alpha" maskUnits="userSpaceOnUse" x="928" y="318" width="41" height="37">
<path fill-rule="evenodd" clip-rule="evenodd" d="M928 318H969V355H940.5C943.245 355 945.812 354.237 948 352.912V354L960 352L953.739 346.634C953.716 346.614 953.693 346.595 953.669 346.576C954.523 344.728 955 342.67 955 340.5C955 332.492 948.508 326 940.5 326C935.176 326 930.521 328.87 928 333.147V318ZM928 347.853C930.521 352.13 935.176 355 940.5 355H928V347.853Z" fill="#C4C4C4"/>
</mask>
<g mask="url(#mask4_175_16)">
<path d="M954.562 333.5C958.801 333.5 962.312 330.049 962.312 325.75C962.312 321.512 958.801 318 954.562 318C950.264 318 946.812 321.512 946.812 325.75C946.812 330.049 950.264 333.5 954.562 333.5ZM959.951 335.438H958.922C957.59 336.104 956.137 336.406 954.562 336.406C952.988 336.406 951.475 336.104 950.143 335.438H949.113C944.633 335.438 941 339.131 941 343.611V346.094C941 347.729 947.348 350 954.562 350C961.777 350 968.125 347.729 968.125 346.094V343.611C968.125 339.131 964.432 335.438 959.951 335.438Z" fill="white"/>
</g>
<path fill-rule="evenodd" clip-rule="evenodd" d="M932.289 332.291C936.677 327.903 943.814 327.903 948.2 332.291C950.325 334.416 951.495 337.241 951.495 340.246C951.495 342.905 950.575 345.422 948.891 347.439L950.54 349.214C951.584 348.722 952.86 348.883 953.721 349.743L960.177 356.2C961.274 357.297 961.274 359.081 960.177 360.177C959.629 360.726 958.909 361 958.189 361C957.468 361 956.749 360.726 956.2 360.177L949.742 353.721C948.882 352.859 948.722 351.584 949.214 350.54L947.54 348.739C945.442 350.541 942.857 351.49 940.245 351.49C937.363 351.49 934.483 350.394 932.289 348.2C927.904 343.815 927.904 336.677 932.289 332.291ZM937.5 345.906C937.5 345.562 937.75 345.281 938.125 345.281H938.75V340.75H938.125C937.75 340.75 937.5 340.469 937.5 340.125V338.625C937.5 338.281 937.75 338 938.125 338H941.625C941.969 338 942.25 338.281 942.25 338.625V345.281H942.875C943.219 345.281 943.5 345.562 943.5 345.906V347.375C943.5 347.75 943.219 348 942.875 348H938.125C937.75 348 937.5 347.75 937.5 347.375V345.906ZM938.25 334.25C938.25 333.031 939.25 332 940.5 332C941.719 332 942.75 333.031 942.75 334.25C942.75 335.5 941.719 336.5 940.5 336.5C939.25 336.5 938.25 335.5 938.25 334.25Z" fill="white"/>
<mask id="path-125-inside-11_175_16" fill="white">
<path d="M1062 441C1062 459.778 1046.78 475 1028 475C1009.22 475 994 459.778 994 441C994 422.222 1009.22 407 1028 407C1046.78 407 1062 422.222 1062 441Z"/>
</mask>
<path d="M1060.5 441C1060.5 458.949 1045.95 473.5 1028 473.5V476.5C1047.61 476.5 1063.5 460.606 1063.5 441H1060.5ZM1028 473.5C1010.05 473.5 995.5 458.949 995.5 441H992.5C992.5 460.606 1008.39 476.5 1028 476.5V473.5ZM995.5 441C995.5 423.051 1010.05 408.5 1028 408.5V405.5C1008.39 405.5 992.5 421.394 992.5 441H995.5ZM1028 408.5C1045.95 408.5 1060.5 423.051 1060.5 441H1063.5C1063.5 421.394 1047.61 405.5 1028 405.5V408.5Z" fill="white" mask="url(#path-125-inside-11_175_16)"/>
<g clip-path="url(#clip7_175_16)">
<path d="M1028 439.333C1029.84 439.333 1031.33 437.841 1031.33 436C1031.33 434.159 1029.84 432.667 1028 432.667C1026.16 432.667 1024.67 434.159 1024.67 436C1024.67 437.841 1026.16 439.333 1028 439.333Z" fill="white"/>
<path d="M1030.08 441H1025.92C1023.39 441 1021.33 443.055 1021.33 445.583V446.417C1021.33 447.107 1021.5 448.667 1028 448.667C1034.5 448.667 1034.67 447.107 1034.67 446.417V445.583C1034.67 443.055 1032.61 441 1030.08 441Z" fill="white"/>
<path d="M1028 458.083C1018.58 458.083 1010.92 450.42 1010.92 441C1010.92 431.58 1018.58 423.917 1028 423.917C1037.42 423.917 1045.08 431.58 1045.08 441C1045.08 450.42 1037.42 458.083 1028 458.083ZM1028 426.25C1019.42 426.25 1013.25 432.418 1013.25 441C1013.25 449.582 1019.42 455.75 1028 455.75C1036.58 455.75 1042.75 449.582 1042.75 441C1042.75 432.418 1036.58 426.25 1028 426.25Z" fill="white"/>
<path d="M1028 430.167C1027.08 430.167 1026.33 429.42 1026.33 428.5V422.667C1026.33 421.747 1027.08 421 1028 421C1028.92 421 1029.67 421.747 1029.67 422.667V428.5C1029.67 429.42 1028.92 430.167 1028 430.167Z" fill="white"/>
<path d="M1046.33 442.667H1040.5C1039.58 442.667 1038.83 441.92 1038.83 441C1038.83 440.08 1039.58 439.333 1040.5 439.333H1046.33C1047.25 439.333 1048 440.08 1048 441C1048 441.92 1047.25 442.667 1046.33 442.667Z" fill="white"/>
<path d="M1028 461C1027.08 461 1026.33 460.253 1026.33 459.333V453.5C1026.33 452.58 1027.08 451.833 1028 451.833C1028.92 451.833 1029.67 452.58 1029.67 453.5V459.333C1029.67 460.253 1028.92 461 1028 461Z" fill="white"/>
<path d="M1015.5 442.667H1009.67C1008.75 442.667 1008 441.92 1008 441C1008 440.08 1008.75 439.333 1009.67 439.333H1015.5C1016.42 439.333 1017.17 440.08 1017.17 441C1017.17 441.92 1016.42 442.667 1015.5 442.667Z" fill="white"/>
</g>
<mask id="path-134-inside-12_175_16" fill="white">
<path d="M1023 562C1023 580.778 1007.78 596 989 596C970.222 596 955 580.778 955 562C955 543.222 970.222 528 989 528C1007.78 528 1023 543.222 1023 562Z"/>
</mask>
<path d="M1021.5 562C1021.5 579.949 1006.95 594.5 989 594.5V597.5C1008.61 597.5 1024.5 581.606 1024.5 562H1021.5ZM989 594.5C971.051 594.5 956.5 579.949 956.5 562H953.5C953.5 581.606 969.394 597.5 989 597.5V594.5ZM956.5 562C956.5 544.051 971.051 529.5 989 529.5V526.5C969.394 526.5 953.5 542.394 953.5 562H956.5ZM989 529.5C1006.95 529.5 1021.5 544.051 1021.5 562H1024.5C1024.5 542.394 1008.61 526.5 989 526.5V529.5Z" fill="white" mask="url(#path-134-inside-12_175_16)"/>
<path fill-rule="evenodd" clip-rule="evenodd" d="M985.854 580C985.942 580.496 985.567 580.954 985.063 580.965L980.963 581.06C980.599 581.068 980.279 580.833 980.149 580.492C979.86 579.733 979.647 579.647 978.899 579.345C978.041 578.999 976.478 578.369 973.288 576.113C972.671 575.677 971.307 574.36 971.176 573.616L970.018 562.311C969.735 560.706 972.915 559.287 974.152 566.1L974.931 567.858C974.321 568.034 973.797 568.396 973.414 568.943C972.903 569.673 972.776 570.555 973.056 571.429C973.281 572.129 973.767 572.782 974.389 573.218L977.973 575.727C978.146 575.479 978.214 575.173 978.161 574.876C978.109 574.578 977.94 574.314 977.693 574.141L975.042 572.285C974.226 571.714 973.685 570.542 974.347 569.596C974.63 569.192 975 568.98 975.395 568.905L975.397 568.909C976.429 568.713 977.422 569.472 978.335 570.17C978.492 570.29 978.647 570.408 978.8 570.52C979.367 570.917 979.966 571.286 980.575 571.359C982.767 571.668 984.648 573.183 985.186 576.238L985.854 580ZM1003 566.101C1004.24 559.287 1007.42 560.707 1007.13 562.311L1005.97 573.617C1005.84 574.36 1004.48 575.677 1003.86 576.114C1000.67 578.37 999.109 579 998.251 579.346C997.503 579.648 997.29 579.733 997.001 580.493C996.871 580.833 996.552 581.068 996.188 581.06L992.087 580.966C991.583 580.954 991.208 580.496 991.296 580L991.964 576.238C992.503 573.183 994.383 571.668 996.575 571.359C997.184 571.286 997.783 570.917 998.351 570.52C998.503 570.409 998.658 570.29 998.815 570.17C999.728 569.473 1000.72 568.714 1001.75 568.91L1001.76 568.905C1002.15 568.98 1002.52 569.193 1002.8 569.596C1003.47 570.542 1002.92 571.714 1002.11 572.285L999.457 574.141C999.21 574.314 999.041 574.579 998.989 574.876C998.936 575.174 999.004 575.48 999.177 575.727L1002.76 573.218C1003.38 572.782 1003.87 572.13 1004.09 571.429C1004.37 570.556 1004.25 569.673 1003.74 568.943C1003.35 568.397 1002.83 568.034 1002.22 567.858L1003 566.101Z" fill="white"/>
<path d="M988.83 553.608C987.648 553.608 986.614 553.361 985.629 552.771C984.644 552.229 983.905 551.49 983.364 550.505C982.773 549.52 982.526 548.486 982.526 547.304C982.526 546.171 982.773 545.137 983.364 544.152C983.905 543.167 984.644 542.428 985.629 541.837C986.614 541.295 987.648 541 988.83 541C989.963 541 990.997 541.295 991.982 541.837C992.967 542.428 993.706 543.167 994.297 544.152C994.839 545.137 995.134 546.171 995.134 547.304C995.134 548.486 994.839 549.52 994.297 550.505C993.706 551.49 992.967 552.229 991.982 552.771C990.997 553.361 989.963 553.608 988.83 553.608ZM993.558 555.233C994.691 555.282 995.725 555.627 996.71 556.218C997.695 556.809 998.434 557.597 999.025 558.582C999.567 559.567 999.862 560.65 999.862 561.783V563.852C999.862 564.541 999.616 565.083 999.173 565.526C998.68 566.018 995.134 568.457 988.83 568.457C982.526 568.457 978.931 566.018 978.488 565.526C977.996 565.083 977.799 564.541 977.799 563.852V561.783C977.799 560.65 978.045 559.567 978.636 558.582C979.178 557.597 979.916 556.809 980.901 556.218C981.886 555.627 982.92 555.282 984.102 555.233L986.466 564.64L988.042 557.942L986.466 555.184H991.194L989.618 557.942L991.194 564.64L993.558 555.233Z" fill="white"/>
<mask id="path-138-inside-13_175_16" fill="white">
<path d="M887 740C887 758.778 871.778 774 853 774C834.222 774 819 758.778 819 740C819 721.222 834.222 706 853 706C871.778 706 887 721.222 887 740Z"/>
</mask>
<path d="M885.5 740C885.5 757.949 870.949 772.5 853 772.5V775.5C872.606 775.5 888.5 759.606 888.5 740H885.5ZM853 772.5C835.051 772.5 820.5 757.949 820.5 740H817.5C817.5 759.606 833.394 775.5 853 775.5V772.5ZM820.5 740C820.5 722.051 835.051 707.5 853 707.5V704.5C833.394 704.5 817.5 720.394 817.5 740H820.5ZM853 707.5C870.949 707.5 885.5 722.051 885.5 740H888.5C888.5 720.394 872.606 704.5 853 704.5V707.5Z" fill="white" mask="url(#path-138-inside-13_175_16)"/>
<path d="M846.166 740.127C851.227 740.127 855.332 736.07 855.332 731.067C855.332 726.065 851.227 722 846.166 722C841.105 722 837 726.057 837 731.06C837 736.062 841.105 740.127 846.166 740.127ZM842.964 734.645C843.048 734.345 843.131 734.052 843.222 733.752C843.328 733.407 843.427 733.37 843.746 733.535C844.292 733.812 844.869 733.97 845.476 734.045C845.863 734.09 846.25 734.052 846.606 733.895C847.282 733.602 847.388 732.83 846.819 732.365C846.621 732.207 846.401 732.087 846.174 731.99C845.582 731.735 844.967 731.54 844.406 731.21C843.503 730.677 842.926 729.935 842.994 728.847C843.07 727.617 843.776 726.845 844.914 726.44C845.385 726.267 845.385 726.275 845.392 725.787C845.392 725.622 845.392 725.457 845.392 725.292C845.4 724.925 845.468 724.865 845.832 724.85C845.946 724.85 846.06 724.85 846.174 724.85C846.963 724.85 846.963 724.85 846.963 725.63C846.963 726.177 846.963 726.185 847.517 726.267C847.942 726.335 848.344 726.455 848.738 726.627C848.959 726.725 849.034 726.875 848.974 727.1C848.875 727.437 848.784 727.775 848.67 728.105C848.564 728.42 848.465 728.465 848.162 728.322C847.547 728.03 846.902 727.902 846.219 727.94C846.037 727.947 845.87 727.97 845.703 728.045C845.119 728.3 845.02 728.937 845.521 729.335C845.772 729.537 846.06 729.68 846.363 729.8C846.879 730.01 847.403 730.22 847.904 730.49C849.475 731.352 849.899 733.302 848.792 734.63C848.389 735.11 847.873 735.432 847.259 735.597C846.993 735.672 846.872 735.807 846.887 736.077C846.902 736.347 846.887 736.61 846.887 736.88C846.887 737.12 846.766 737.247 846.523 737.255C846.234 737.262 845.939 737.262 845.65 737.255C845.392 737.247 845.271 737.105 845.271 736.857C845.271 736.662 845.271 736.467 845.263 736.272C845.256 735.845 845.248 735.822 844.823 735.755C844.284 735.672 843.761 735.552 843.268 735.312C842.896 735.14 842.858 735.042 842.964 734.645Z" fill="white"/>
<path d="M866.728 740.885H865.658C864.952 738.748 863.571 736.85 861.727 735.38C861.727 735.313 861.712 735.238 861.697 735.17C861.31 733.828 861.788 732.605 862.342 731.728C862.729 731.113 862.228 730.325 861.5 730.415C859.868 730.618 858.745 731.21 857.971 731.878C857.44 732.335 857.061 732.95 856.894 733.633C855.725 738.418 851.362 741.98 846.165 741.98C843.638 741.98 841.316 741.14 839.457 739.73C838.812 741.11 838.463 742.618 838.463 744.2C838.463 745.055 838.569 745.887 838.766 746.69C838.766 746.69 838.766 746.705 838.774 746.727C838.979 747.56 839.29 748.362 839.685 749.12C840.208 750.237 840.967 751.542 842.014 752.6C843.524 754.137 843.782 756.042 843.82 756.867V757.22C843.82 757.235 843.82 757.25 843.82 757.265C843.82 757.272 843.82 757.272 843.82 757.272C843.85 757.677 844.192 758 844.609 758H849.405C849.837 758 850.194 757.655 850.194 757.22V756.05C850.892 756.14 851.605 756.192 852.326 756.192C852.895 756.192 853.449 756.162 854.003 756.102V757.22C854.003 757.647 854.352 758 854.792 758H859.603C860.035 758 860.392 757.655 860.392 757.22V756.05C860.399 755.66 860.536 754.107 862.023 752.78C862.076 752.735 862.13 752.69 862.183 752.645C862.198 752.63 862.213 752.622 862.228 752.607C863.882 751.152 865.104 749.337 865.734 747.312H866.743C867.547 747.312 868.2 746.667 868.2 745.872V742.325C868.185 741.53 867.532 740.885 866.728 740.885ZM860.726 741.14C860.066 741.14 859.534 740.615 859.534 739.963C859.534 739.31 860.066 738.785 860.726 738.785C861.386 738.785 861.917 739.31 861.917 739.963C861.917 740.615 861.386 741.14 860.726 741.14Z" fill="white"/>
<mask id="path-142-inside-14_175_16" fill="white">
<path d="M829 856C829 874.778 813.778 890 795 890C776.222 890 761 874.778 761 856C761 837.222 776.222 822 795 822C813.778 822 829 837.222 829 856Z"/>
</mask>
<path d="M827.5 856C827.5 873.949 812.949 888.5 795 888.5V891.5C814.606 891.5 830.5 875.606 830.5 856H827.5ZM795 888.5C777.051 888.5 762.5 873.949 762.5 856H759.5C759.5 875.606 775.394 891.5 795 891.5V888.5ZM762.5 856C762.5 838.051 777.051 823.5 795 823.5V820.5C775.394 820.5 759.5 836.394 759.5 856H762.5ZM795 823.5C812.949 823.5 827.5 838.051 827.5 856H830.5C830.5 836.394 814.606 820.5 795 820.5V823.5Z" fill="white" mask="url(#path-142-inside-14_175_16)"/>
<mask id="mask5_175_16" style="mask-type:alpha" maskUnits="userSpaceOnUse" x="773" y="840" width="44" height="35">
<path fill-rule="evenodd" clip-rule="evenodd" d="M817 840H773V844H810C812.209 844 814 845.791 814 848V875H817V840Z" fill="#C4C4C4"/>
</mask>
<g mask="url(#mask5_175_16)">
<path fill-rule="evenodd" clip-rule="evenodd" d="M817 844.937V846.836C817 847.03 816.843 847.187 816.648 847.187H781.352C781.157 847.187 781 847.03 781 846.836V844.937C781 842.763 782.763 841 784.937 841H813.062C815.237 841 817 842.763 817 844.937ZM781 861.812V849.789C781 849.595 781.157 849.437 781.352 849.437H816.648C816.843 849.437 817 849.595 817 849.789V861.812C817 863.987 815.237 865.75 813.062 865.75H784.937C782.763 865.75 781 863.987 781 861.812ZM788.875 860.125C789.496 860.125 790 859.621 790 859V857.875C790 857.254 789.496 856.75 788.875 856.75H787.75C787.129 856.75 786.625 857.254 786.625 857.875V859C786.625 859.621 787.129 860.125 787.75 860.125H788.875Z" fill="white"/>
</g>
<path fill-rule="evenodd" clip-rule="evenodd" d="M811 850.938V852.836C811 853.03 810.843 853.188 810.648 853.188H775.352C775.157 853.188 775 853.03 775 852.836V850.938C775 848.763 776.763 847 778.938 847H807.062C809.237 847 811 848.763 811 850.938ZM775 867.812V856.789C775 856.595 775.157 856.438 775.352 856.438H810.648C810.843 856.438 811 856.595 811 856.789V867.812C811 869.987 809.237 871.75 807.062 871.75H778.938C776.763 871.75 775 869.987 775 867.812ZM779 861C779 860.448 779.448 860 780 860H785C785.552 860 786 860.448 786 861V865C786 865.552 785.552 866 785 866H780C779.448 866 779 865.552 779 865V861Z" fill="white"/>
<mask id="path-147-inside-15_175_16" fill="white">
<path d="M677 859C677 877.778 661.778 893 643 893C624.222 893 609 877.778 609 859C609 840.222 624.222 825 643 825C661.778 825 677 840.222 677 859Z"/>
</mask>
<path d="M675.5 859C675.5 876.949 660.949 891.5 643 891.5V894.5C662.606 894.5 678.5 878.606 678.5 859H675.5ZM643 891.5C625.051 891.5 610.5 876.949 610.5 859H607.5C607.5 878.606 623.394 894.5 643 894.5V891.5ZM610.5 859C610.5 841.051 625.051 826.5 643 826.5V823.5C623.394 823.5 607.5 839.394 607.5 859H610.5ZM643 826.5C660.949 826.5 675.5 841.051 675.5 859H678.5C678.5 839.394 662.606 823.5 643 823.5V826.5Z" fill="white" mask="url(#path-147-inside-15_175_16)"/>
<path fill-rule="evenodd" clip-rule="evenodd" d="M632.482 852.919L645.58 841.568C645.956 841.242 646.514 841.242 646.89 841.568L659.988 852.919C660.337 853.222 660.123 853.797 659.66 853.797H656.782V863.596C656.094 863.73 655.429 863.95 654.844 864.346L652.563 865.882V862.229C652.563 862.229 649.662 862.232 647.29 862.233L645.18 862.234C644.628 862.234 644.268 862.234 644.263 862.233L644.063 862.063C642.331 860.541 640.106 859.703 637.797 859.703C637.079 859.703 636.378 859.811 635.688 859.968V853.797H632.81C632.347 853.797 632.132 853.222 632.482 852.919ZM642.063 857.839C642.164 857.476 642.265 857.122 642.375 856.76C642.503 856.343 642.622 856.298 643.007 856.497C643.668 856.832 644.365 857.023 645.098 857.113C645.566 857.168 646.034 857.122 646.465 856.932C647.281 856.579 647.41 855.645 646.722 855.083C646.483 854.893 646.217 854.747 645.942 854.63C645.723 854.535 645.501 854.447 645.279 854.36L645.279 854.36C644.777 854.162 644.276 853.963 643.805 853.687C642.714 853.043 642.017 852.146 642.1 850.831C642.191 849.345 643.044 848.411 644.42 847.922L644.445 847.912C644.988 847.713 644.989 847.713 644.998 847.133V846.535C645.007 846.091 645.089 846.018 645.53 846H645.942C646.421 846 646.659 846 646.778 846.119C646.896 846.237 646.896 846.473 646.896 846.943C646.896 847.604 646.896 847.613 647.565 847.713C648.079 847.795 648.565 847.94 649.042 848.148C649.308 848.266 649.4 848.447 649.326 848.719C649.299 848.814 649.271 848.91 649.244 849.005L649.244 849.005L649.244 849.005C649.154 849.317 649.065 849.628 648.959 849.934C648.831 850.315 648.712 850.369 648.345 850.197C647.602 849.843 646.823 849.689 645.997 849.735C645.777 849.744 645.575 849.771 645.374 849.862C644.667 850.17 644.548 850.94 645.153 851.421C645.456 851.665 645.805 851.838 646.171 851.983L646.251 852.015L646.251 852.015C646.849 852.258 647.454 852.504 648.033 852.817C649.932 853.859 650.445 856.216 649.106 857.82C648.62 858.401 647.997 858.79 647.254 858.99C646.933 859.08 646.786 859.244 646.804 859.57C646.816 859.787 646.812 860 646.808 860.215C646.806 860.323 646.804 860.431 646.804 860.54C646.804 860.83 646.658 860.984 646.364 860.993C646.016 861.002 645.658 861.002 645.309 860.993C644.998 860.984 644.851 860.812 644.851 860.513V860.513C644.851 860.277 644.851 860.041 644.842 859.806C644.833 859.289 644.823 859.262 644.31 859.18C643.659 859.08 643.026 858.935 642.43 858.645C641.98 858.437 641.934 858.319 642.063 857.839ZM649.23 870.672L656.022 866.094C657.456 865.124 659.439 865.504 660.409 866.938L661 867.824L647.648 876.829C647.483 876.94 647.288 877 647.089 877H627C625.895 877 625 876.105 625 875V868.453C625 867.349 625.895 866.453 627 866.453H629.739L632.924 863.647C635.709 861.201 639.885 861.201 642.67 863.647L643.176 864.091C643.49 864.355 643.765 864.348 643.97 864.342C644.027 864.341 644.079 864.339 644.125 864.344H650.453V865.398C650.453 867.149 649.04 868.562 647.289 868.562H640.961V870.672H649.23Z" fill="white"/>
<mask id="path-150-inside-16_175_16" fill="white">
<path d="M557 140C557 158.778 541.778 174 523 174C504.222 174 489 158.778 489 140C489 121.222 504.222 106 523 106C541.778 106 557 121.222 557 140Z"/>
</mask>
<path d="M555.5 140C555.5 157.949 540.949 172.5 523 172.5V175.5C542.606 175.5 558.5 159.606 558.5 140H555.5ZM523 172.5C505.051 172.5 490.5 157.949 490.5 140H487.5C487.5 159.606 503.394 175.5 523 175.5V172.5ZM490.5 140C490.5 122.051 505.051 107.5 523 107.5V104.5C503.394 104.5 487.5 120.394 487.5 140H490.5ZM523 107.5C540.949 107.5 555.5 122.051 555.5 140H558.5C558.5 120.394 542.606 104.5 523 104.5V107.5Z" fill="white" mask="url(#path-150-inside-16_175_16)"/>
<g clip-path="url(#clip8_175_16)">
<path d="M542.667 141.667H534.667C533.931 141.667 533.334 142.264 533.334 143C533.334 143.736 533.931 144.333 534.667 144.333H539.31L530.464 152.072L520.598 147.139C520.208 146.947 519.747 146.952 519.363 147.163L504.697 155.163C504.049 155.515 503.811 156.325 504.163 156.971C504.406 157.416 504.862 157.667 505.334 157.667C505.55 157.667 505.769 157.613 505.971 157.501L520.027 149.837L530.07 154.859C530.555 155.096 531.134 155.027 531.544 154.669L541.334 146.104V151C541.334 151.736 541.931 152.333 542.667 152.333C543.403 152.333 544 151.736 544 151V143C544 142.264 543.403 141.667 542.667 141.667Z" fill="white"/>
<path d="M518.667 120.333C510.566 120.333 504 126.899 504 135C504 140.731 507.296 145.68 512.086 148.093L518.083 144.821C519.216 144.2 520.6 144.168 521.779 144.749L526.747 147.235C530.715 144.608 533.333 140.112 533.333 135C533.333 126.899 526.768 120.333 518.667 120.333ZM518.667 133.667C520.872 133.667 522.667 135.461 522.667 137.667C522.667 139.403 521.549 140.869 520 141.421V143C520 143.736 519.403 144.333 518.667 144.333C517.931 144.333 517.333 143.736 517.333 143V141.667H516C515.264 141.667 514.667 141.069 514.667 140.333C514.667 139.597 515.264 139 516 139H518.667C519.403 139 520 138.403 520 137.667C520 136.931 519.403 136.333 518.667 136.333C516.461 136.333 514.667 134.539 514.667 132.333C514.667 130.597 515.784 129.131 517.333 128.579V127C517.333 126.264 517.931 125.667 518.667 125.667C519.403 125.667 520 126.264 520 127V128.333H521.333C522.069 128.333 522.667 128.931 522.667 129.667C522.667 130.403 522.069 131 521.333 131H518.667C517.931 131 517.333 131.597 517.333 132.333C517.333 133.069 517.931 133.667 518.667 133.667Z" fill="white"/>
</g>
<mask id="path-154-inside-17_175_16" fill="white">
<path d="M377 275C377 293.778 361.778 309 343 309C324.222 309 309 293.778 309 275C309 256.222 324.222 241 343 241C361.778 241 377 256.222 377 275Z"/>
</mask>
<path d="M375.5 275C375.5 292.949 360.949 307.5 343 307.5V310.5C362.606 310.5 378.5 294.606 378.5 275H375.5ZM343 307.5C325.051 307.5 310.5 292.949 310.5 275H307.5C307.5 294.606 323.394 310.5 343 310.5V307.5ZM310.5 275C310.5 257.051 325.051 242.5 343 242.5V239.5C323.394 239.5 307.5 255.394 307.5 275H310.5ZM343 242.5C360.949 242.5 375.5 257.051 375.5 275H378.5C378.5 255.394 362.606 239.5 343 239.5V242.5Z" fill="white" mask="url(#path-154-inside-17_175_16)"/>
<g clip-path="url(#clip9_175_16)">
<path d="M329.164 258C327.419 258 326 259.419 326 261.164V274.031H342.031V258H329.164ZM336.477 267.07H335.07V268.477C335.07 269.059 334.598 269.531 334.016 269.531C333.433 269.531 332.961 269.059 332.961 268.477V267.07H331.555C330.972 267.07 330.5 266.598 330.5 266.016C330.5 265.433 330.972 264.961 331.555 264.961H332.961V263.555C332.961 262.972 333.433 262.5 334.016 262.5C334.598 262.5 335.07 262.972 335.07 263.555V264.961H336.477C337.059 264.961 337.531 265.433 337.531 266.016C337.531 266.598 337.059 267.07 336.477 267.07Z" fill="white"/>
<path d="M359.598 274.031H360.172V261.164C360.172 259.419 358.752 258 357.008 258H344.141V273.651C346.228 272.08 348.822 271.148 351.629 271.148C354.656 271.148 357.434 272.232 359.598 274.031ZM348.641 266.016C348.641 265.433 349.113 264.961 349.695 264.961H354.617C355.2 264.961 355.672 265.433 355.672 266.016C355.672 266.598 355.2 267.07 354.617 267.07H349.695C349.113 267.07 348.641 266.598 348.641 266.016Z" fill="white"/>
<path d="M341.651 276.141H326V289.008C326 290.752 327.419 292.172 329.164 292.172H342.031V291.598C340.232 289.434 339.148 286.656 339.148 283.629C339.148 280.822 340.08 278.228 341.651 276.141ZM336.519 285.168C336.931 285.58 336.931 286.248 336.519 286.66C336.313 286.866 336.043 286.969 335.773 286.969C335.504 286.969 335.234 286.866 335.028 286.66L334.016 285.648L333.004 286.66C332.798 286.866 332.528 286.969 332.258 286.969C331.988 286.969 331.718 286.866 331.512 286.66C331.1 286.248 331.1 285.58 331.512 285.168L332.524 284.156L331.512 283.144C331.1 282.732 331.1 282.065 331.512 281.653C331.924 281.241 332.592 281.241 333.004 281.653L334.016 282.665L335.028 281.653C335.44 281.241 336.107 281.241 336.519 281.653C336.931 282.065 336.931 282.732 336.519 283.144L335.507 284.156L336.519 285.168Z" fill="white"/>
<path d="M351.629 273.258C345.91 273.258 341.258 277.91 341.258 283.629C341.258 289.348 345.91 294 351.629 294C357.348 294 362 289.348 362 283.629C362 277.91 357.348 273.258 351.629 273.258ZM354.09 286.441H349.168C348.585 286.441 348.113 285.969 348.113 285.387C348.113 284.804 348.585 284.332 349.168 284.332H354.09C354.672 284.332 355.145 284.804 355.145 285.387C355.145 285.969 354.672 286.441 354.09 286.441ZM354.09 282.926H349.168C348.585 282.926 348.113 282.454 348.113 281.871C348.113 281.289 348.585 280.816 349.168 280.816H354.09C354.672 280.816 355.145 281.289 355.145 281.871C355.145 282.454 354.672 282.926 354.09 282.926Z" fill="white"/>
</g>
<mask id="path-160-inside-18_175_16" fill="white">
<path d="M199 452C199 470.778 183.778 486 165 486C146.222 486 131 470.778 131 452C131 433.222 146.222 418 165 418C183.778 418 199 433.222 199 452Z"/>
</mask>
<path d="M197.5 452C197.5 469.949 182.949 484.5 165 484.5V487.5C184.606 487.5 200.5 471.606 200.5 452H197.5ZM165 484.5C147.051 484.5 132.5 469.949 132.5 452H129.5C129.5 471.606 145.394 487.5 165 487.5V484.5ZM132.5 452C132.5 434.051 147.051 419.5 165 419.5V416.5C145.394 416.5 129.5 432.394 129.5 452H132.5ZM165 419.5C182.949 419.5 197.5 434.051 197.5 452H200.5C200.5 432.394 184.606 416.5 165 416.5V419.5Z" fill="white" mask="url(#path-160-inside-18_175_16)"/>
<g clip-path="url(#clip10_175_16)">
<path d="M173.321 446.298C173.311 448.132 172.948 449.884 172.298 451.491C173.607 451.805 174.797 452.524 175.694 453.567C176.115 454.058 176.06 454.797 175.569 455.219C175.078 455.641 174.338 455.586 173.916 455.095C173.217 454.281 172.237 453.777 171.183 453.675C170.504 454.762 169.68 455.75 168.74 456.612H171.379C172.026 456.612 172.551 457.137 172.551 457.784C172.551 458.431 172.026 458.956 171.379 458.956H166.825C167.331 460.664 168.914 461.914 170.784 461.914C171.988 461.914 173.129 461.389 173.916 460.474C174.338 459.983 175.078 459.927 175.569 460.349C176.06 460.771 176.115 461.511 175.694 462.001C174.461 463.435 172.672 464.257 170.784 464.257C167.736 464.257 165.175 462.139 164.491 459.298C162.885 459.948 161.132 460.31 159.298 460.321C160.461 465.591 165.169 469.547 170.784 469.547C177.27 469.547 182.547 464.27 182.547 457.784C182.547 452.169 178.592 447.461 173.321 446.298Z" fill="white"/>
<path d="M170.978 446.216C170.978 439.73 165.702 434.454 159.216 434.454C152.73 434.454 147.453 439.73 147.453 446.216C147.453 452.702 152.73 457.979 159.216 457.979C165.702 457.979 170.978 452.702 170.978 446.216ZM158.044 452.328V452.095H156.862C156.215 452.095 155.691 451.57 155.691 450.923C155.691 450.276 156.215 449.751 156.862 449.751H159.216C159.867 449.751 160.397 449.221 160.397 448.57C160.397 447.918 159.867 447.388 159.216 447.388C157.272 447.388 155.691 445.807 155.691 443.863C155.691 442.33 156.675 441.023 158.044 440.538V440.105C158.044 439.457 158.569 438.933 159.216 438.933C159.863 438.933 160.388 439.457 160.388 440.105V440.337H161.569C162.217 440.337 162.741 440.862 162.741 441.509C162.741 442.156 162.217 442.681 161.569 442.681H159.216C158.564 442.681 158.034 443.211 158.034 443.863C158.034 444.514 158.564 445.044 159.216 445.044C161.16 445.044 162.741 446.626 162.741 448.57C162.741 450.103 161.757 451.41 160.388 451.894V452.328C160.388 452.975 159.863 453.5 159.216 453.5C158.569 453.5 158.044 452.975 158.044 452.328Z" fill="white"/>
<path d="M159.929 468.749C155.706 467.472 151.871 464.283 149.555 460.219L150.319 460.476C150.932 460.682 151.597 460.352 151.803 459.739C152.009 459.125 151.679 458.461 151.066 458.254L147.684 457.117C147.07 456.91 146.406 457.24 146.199 457.854L145.061 461.236C144.855 461.85 145.185 462.514 145.799 462.72C145.922 462.762 146.048 462.782 146.172 462.782C146.662 462.782 147.118 462.473 147.283 461.983L147.498 461.343C148.587 463.26 149.99 465.032 151.626 466.547C153.875 468.626 156.511 470.164 159.25 470.992C159.363 471.026 159.477 471.043 159.59 471.043C160.093 471.043 160.558 470.716 160.711 470.21C160.898 469.591 160.548 468.936 159.929 468.749Z" fill="white"/>
<path d="M184.201 441.28C183.588 441.073 182.924 441.403 182.717 442.017L182.501 442.658C181.407 440.73 179.995 438.948 178.347 437.429C176.105 435.362 173.478 433.833 170.75 433.008C170.13 432.82 169.476 433.171 169.289 433.79C169.102 434.41 169.452 435.064 170.071 435.251C174.289 436.527 178.127 439.718 180.444 443.781L179.681 443.524C179.068 443.318 178.403 443.648 178.197 444.262C177.99 444.875 178.321 445.539 178.934 445.746L182.316 446.884C182.44 446.925 182.566 446.945 182.69 446.945C183.18 446.945 183.636 446.636 183.801 446.146L184.938 442.764C185.145 442.15 184.815 441.486 184.201 441.28Z" fill="white"/>
</g>
<mask id="path-166-inside-19_175_16" fill="white">
<path d="M233 300C233 318.778 217.778 334 199 334C180.222 334 165 318.778 165 300C165 281.222 180.222 266 199 266C217.778 266 233 281.222 233 300Z"/>
</mask>
<path d="M231.5 300C231.5 317.949 216.949 332.5 199 332.5V335.5C218.606 335.5 234.5 319.606 234.5 300H231.5ZM199 332.5C181.051 332.5 166.5 317.949 166.5 300H163.5C163.5 319.606 179.394 335.5 199 335.5V332.5ZM166.5 300C166.5 282.051 181.051 267.5 199 267.5V264.5C179.394 264.5 163.5 280.394 163.5 300H166.5ZM199 267.5C216.949 267.5 231.5 282.051 231.5 300H234.5C234.5 280.394 218.606 264.5 199 264.5V267.5Z" fill="white" mask="url(#path-166-inside-19_175_16)"/>
<path d="M204.938 283.375H202.358C201.869 281.993 200.549 281 199 281C197.451 281 196.131 281.993 195.639 283.375H193.062C192.407 283.375 191.875 283.907 191.875 284.562V289.312C191.875 289.968 192.407 290.5 193.062 290.5H204.938C205.593 290.5 206.125 289.968 206.125 289.312V284.562C206.125 283.907 205.593 283.375 204.938 283.375Z" fill="white"/>
<path d="M210.875 285.75H208.5V289.312C208.5 291.277 206.902 292.875 204.938 292.875H193.062C191.098 292.875 189.5 291.277 189.5 289.312V285.75H187.125C185.816 285.75 184.75 286.816 184.75 288.125V316.625C184.75 317.957 185.793 319 187.125 319H210.875C212.207 319 213.25 317.957 213.25 316.625V288.125C213.25 286.793 212.207 285.75 210.875 285.75ZM198.653 306.778L193.903 311.528C193.67 311.759 193.366 311.875 193.062 311.875C192.759 311.875 192.454 311.759 192.222 311.528L189.847 309.153C189.384 308.69 189.384 307.937 189.847 307.474C190.31 307.011 191.063 307.011 191.526 307.474L193.062 309.008L196.972 305.099C197.435 304.636 198.188 304.636 198.651 305.099C199.114 305.562 199.116 306.313 198.653 306.778ZM198.653 297.278L193.903 302.028C193.67 302.259 193.366 302.375 193.062 302.375C192.759 302.375 192.454 302.259 192.222 302.028L189.847 299.653C189.384 299.19 189.384 298.437 189.847 297.974C190.31 297.511 191.063 297.511 191.526 297.974L193.062 299.508L196.972 295.599C197.435 295.136 198.188 295.136 198.651 295.599C199.114 296.062 199.116 296.813 198.653 297.278ZM207.312 309.5H202.562C201.907 309.5 201.375 308.968 201.375 308.312C201.375 307.657 201.907 307.125 202.562 307.125H207.312C207.968 307.125 208.5 307.657 208.5 308.312C208.5 308.968 207.968 309.5 207.312 309.5ZM207.312 300H202.562C201.907 300 201.375 299.468 201.375 298.812C201.375 298.157 201.907 297.625 202.562 297.625H207.312C207.968 297.625 208.5 298.157 208.5 298.812C208.5 299.468 207.968 300 207.312 300Z" fill="white"/>
</g>
<defs>
<filter id="filter0_d_175_16" x="121.718" y="44.2863" width="944.282" height="908.573" filterUnits="userSpaceOnUse" color-interpolation-filters="sRGB">
<feFlood flood-opacity="0" result="BackgroundImageFix"/>
<feColorMatrix in="SourceAlpha" type="matrix" values="0 0 0 0 0 0 0 0 0 0 0 0 0 0 0 0 0 0 127 0" result="hardAlpha"/>
<feOffset dy="4"/>
<feGaussianBlur stdDeviation="2"/>
<feComposite in2="hardAlpha" operator="out"/>
<feColorMatrix type="matrix" values="0 0 0 0 0 0 0 0 0 0 0 0 0 0 0 0 0 0 0.25 0"/>
<feBlend mode="normal" in2="BackgroundImageFix" result="effect1_dropShadow_175_16"/>
<feBlend mode="normal" in="SourceGraphic" in2="effect1_dropShadow_175_16" result="shape"/>
</filter>
<filter id="filter1_f_175_16" x="374" y="291" width="406" height="406" filterUnits="userSpaceOnUse" color-interpolation-filters="sRGB">
<feFlood flood-opacity="0" result="BackgroundImageFix"/>
<feBlend mode="normal" in="SourceGraphic" in2="BackgroundImageFix" result="shape"/>
<feGaussianBlur stdDeviation="26.5" result="effect1_foregroundBlur_175_16"/>
</filter>
<filter id="filter2_f_175_16" x="374" y="291" width="406" height="406" filterUnits="userSpaceOnUse" color-interpolation-filters="sRGB">
<feFlood flood-opacity="0" result="BackgroundImageFix"/>
<feBlend mode="normal" in="SourceGraphic" in2="BackgroundImageFix" result="shape"/>
<feGaussianBlur stdDeviation="26.5" result="effect1_foregroundBlur_175_16"/>
</filter>
<radialGradient id="paint0_radial_175_16" cx="0" cy="0" r="1" gradientUnits="userSpaceOnUse" gradientTransform="translate(577 494.571) rotate(90) scale(107)">
<stop stop-color="#EAAB00"/>
<stop offset="1" stop-color="#C98B11" stop-opacity="0.68"/>
</radialGradient>
<clipPath id="clip0_175_16">
<rect width="90" height="90" fill="white" transform="translate(531.999 424.571)"/>
</clipPath>
<clipPath id="clip1_175_16">
<rect width="60" height="60" fill="white" transform="translate(359 658)"/>
</clipPath>
<clipPath id="clip2_175_16">
<rect width="68" height="68" fill="white" transform="translate(674 715)"/>
</clipPath>
<clipPath id="clip3_175_16">
<rect width="52" height="52" fill="white" transform="translate(581 193.571)"/>
</clipPath>
<clipPath id="clip4_175_16">
<rect width="36" height="36" fill="white" transform="translate(233 667)"/>
</clipPath>
<clipPath id="clip5_175_16">
<rect width="36" height="36" fill="white" transform="translate(413 798)"/>
</clipPath>
<clipPath id="clip6_175_16">
<rect width="36" height="36" fill="white" transform="translate(673 126)"/>
</clipPath>
<clipPath id="clip7_175_16">
<rect width="40" height="40" fill="white" transform="translate(1008 421)"/>
</clipPath>
<clipPath id="clip8_175_16">
<rect width="40" height="40" fill="white" transform="translate(504 119)"/>
</clipPath>
<clipPath id="clip9_175_16">
<rect width="36" height="36" fill="white" transform="translate(326 258)"/>
</clipPath>
<clipPath id="clip10_175_16">
<rect width="40" height="40" fill="white" transform="translate(145 432)"/>
</clipPath>
</defs>
</svg>
